{
  "name": "keychron k8",
  "layout": [
    [
      { "value": "漢字" },
      { "value": "1", "shift": "!" },
      { "value": "2", "shift": "\"" },
      { "value": "3", "shift": "#" },
      { "value": "4", "shift": "$" },
      { "value": "5", "shift": "%" },
      { "value": "6", "shift": "&" },
      { "value": "7", "shift": "'" },
      { "value": "8", "shift": "(" },
      { "value": "9", "shift": ")" },
      { "value": "0" },
      { "value": "-", "shift": "=" },
      { "value": "^", "shift": "~" },
      { "value": "\\", "shift": "|" },
      { "value": "Backspace" }
    ],
    [
      { "value": "Tab", "width": 1.5 },
      { "value": "q", "shift": "Q" },
      { "value": "w", "shift": "W" },
      { "value": "e", "shift": "E" },
      { "value": "r", "shift": "R" },
      { "value": "t", "shift": "T" },
      { "value": "y", "shift": "Y" },
      { "value": "u", "shift": "U" },
      { "value": "i", "shift": "I" },
      { "value": "o", "shift": "O" },
      { "value": "p", "shift": "P" },
      { "value": "@", "shift": "`" },
      { "value": "[", "shift": "{" },
      { "value": "Enter", "width": 1.5 }
    ],
    [
      { "value": "Alphanumeric", "width": 1.8 },
      { "value": "a", "shift": "A" },
      { "value": "s", "shift": "S" },
      { "value": "d", "shift": "D" },
      { "value": "f", "shift": "F" },
      { "value": "g", "shift": "G" },
      { "value": "h", "shift": "H" },
      { "value": "j", "shift": "J" },
      { "value": "k", "shift": "K" },
      { "value": "l", "shift": "L" },
      { "value": ";", "shift": "+" },
      { "value": ":", "shift": "*" },
      { "value": "]", "shift": "}" },
      { "value": "Enter", "width": 1.2 }
    ],
    [
      { "value": "Shift", "width": 2.4 },
      { "value": "z", "shift": "Z" },
      { "value": "x", "shift": "X" },
      { "value": "c", "shift": "C" },
      { "value": "v", "shift": "V" },
      { "value": "b", "shift": "B" },
      { "value": "n", "shift": "N" },
      { "value": "m", "shift": "M" },
      { "value": ",", "shift": "<" },
      { "value": ".", "shift": ">" },
      { "value": "/", "shift": "?" },
      { "value": "\\", "shift": "_" },
      { "value": "Shift", "width": 1.8 }
    ],
    [
      { "value": "Ctrl", "width": 1.2 },
      { "value": "Alt" },
      { "value": "Meta", "width": 1.2 },
      { "value": "英語" },
      { "value": "Space", "width": 4.8 },
      { "value": "かな" },
      { "value": "Meta", "width": 1.2 },
      { "value": "Alt", "width": 1.2 },
      { "value": "fn" },
      { "value": "Ctrl", "width": 1.2 }
    ]
  ]
}
